<?xml version="1.0" encoding="UTF-8" standalone="no"?>
<!-- Created with Inkscape (http://www.inkscape.org/) -->

<svg
   width="81.943298mm"
   height="39.281086mm"
   viewBox="0 0 81.943298 39.281086"
   version="1.1"
   id="svg29792"
   xml:space="preserve"
   inkscape:version="1.2.2 (b0a8486, 2022-12-01)"
   sodipodi:docname="decay.svg"
   xmlns:inkscape="http://www.inkscape.org/namespaces/inkscape"
   xmlns:sodipodi="http://sodipodi.sourceforge.net/DTD/sodipodi-0.dtd"
   xmlns="http://www.w3.org/2000/svg"
   xmlns:svg="http://www.w3.org/2000/svg"><sodipodi:namedview
     id="namedview29794"
     pagecolor="#ffffff"
     bordercolor="#666666"
     borderopacity="1.0"
     inkscape:showpageshadow="2"
     inkscape:pageopacity="0.0"
     inkscape:pagecheckerboard="0"
     inkscape:deskcolor="#d1d1d1"
     inkscape:document-units="mm"
     showgrid="false"
     inkscape:zoom="1.7837546"
     inkscape:cx="124.17627"
     inkscape:cy="10.091074"
     inkscape:window-width="1440"
     inkscape:window-height="878"
     inkscape:window-x="0"
     inkscape:window-y="0"
     inkscape:window-maximized="1"
     inkscape:current-layer="layer1" /><defs
     id="defs29789"><marker
       style="overflow:visible"
       id="marker40419"
       refX="0"
       refY="0"
       orient="auto-start-reverse"
       inkscape:stockid="Arrow1L"
       markerWidth="8.75"
       markerHeight="5"
       viewBox="0 0 8.75 5"
       inkscape:isstock="true"
       inkscape:collect="always"
       preserveAspectRatio="xMidYMid"><path
         style="fill:context-stroke;fill-rule:evenodd;stroke:none"
         d="M 0,0 5,-5 -12.5,0 5,5 Z"
         id="path40417"
         transform="scale(-0.5)" /></marker><marker
       style="overflow:visible"
       id="marker34426"
       refX="0"
       refY="0"
       orient="auto"
       inkscape:stockid="Stop"
       markerWidth="1"
       markerHeight="8"
       viewBox="0 0 1 8"
       inkscape:isstock="true"
       inkscape:collect="always"
       preserveAspectRatio="xMidYMid"><path
         style="fill:none;stroke:context-stroke;stroke-width:1"
         d="M 0,4 V -4"
         id="path34424" /></marker><marker
       style="overflow:visible"
       id="Stop"
       refX="0"
       refY="0"
       orient="auto"
       inkscape:stockid="Stop"
       markerWidth="1"
       markerHeight="8"
       viewBox="0 0 1 8"
       inkscape:isstock="true"
       inkscape:collect="always"
       preserveAspectRatio="xMidYMid"><path
         style="fill:none;stroke:context-stroke;stroke-width:1"
         d="M 0,4 V -4"
         id="path171" /></marker><marker
       style="overflow:visible"
       id="Arrow1L"
       refX="0"
       refY="0"
       orient="auto-start-reverse"
       inkscape:stockid="Arrow1L"
       markerWidth="8.75"
       markerHeight="5"
       viewBox="0 0 8.75 5"
       inkscape:isstock="true"
       inkscape:collect="always"
       preserveAspectRatio="xMidYMid"><path
         style="fill:context-stroke;fill-rule:evenodd;stroke:none"
         d="M 0,0 5,-5 -12.5,0 5,5 Z"
         id="arrow1L"
         transform="scale(-0.5)" /></marker></defs><g
     inkscape:label="Layer 1"
     inkscape:groupmode="layer"
     id="layer1"
     transform="translate(-50.621349,-107.92226)"><path
       style="fill:#fff6d5;stroke:none;stroke-width:0.264583px;stroke-linecap:butt;stroke-linejoin:miter;stroke-opacity:1"
       d="m 58.570648,142.36254 27.442686,-0.0967 v -8.5509 l -27.551007,-15.3323 z"
       id="path34390"
       sodipodi:nodetypes="ccccc" /><path
       style="fill:none;stroke:#000000;stroke-width:0.5;stroke-linecap:round;stroke-linejoin:round;stroke-dasharray:none;stroke-opacity:1;marker-end:url(#Arrow1L)"
       d="m 58.649391,142.50832 70.790259,-0.11286"
       id="path33489"
       sodipodi:nodetypes="cc" /><path
       style="fill:#000000;fill-opacity:0;stroke:#ff0000;stroke-width:0.75;stroke-linecap:round;stroke-linejoin:miter;stroke-dasharray:none;stroke-opacity:1"
       d="m 58.634084,118.49003 c 0,0 17.515514,11.3719 27.246961,14.90208 12.509194,4.53783 24.320645,7.34919 39.159945,7.75534"
       id="path34244"
       sodipodi:nodetypes="cac" /><path
       style="fill:none;stroke:#999999;stroke-width:0.264583px;stroke-linecap:butt;stroke-linejoin:miter;stroke-dasharray:1.05833, 0.529166;stroke-dashoffset:0;stroke-opacity:1"
       d="M 85.881045,133.58272 H 58.462327"
       id="path34384"
       sodipodi:nodetypes="cc" /><path
       style="fill:none;stroke:#999999;stroke-width:0.264583px;stroke-linecap:butt;stroke-linejoin:miter;stroke-dasharray:1.05833, 0.529166;stroke-dashoffset:0;stroke-opacity:1"
       d="m 86.013336,133.71501 v 8.36872"
       id="path34388"
       sodipodi:nodetypes="cc" /><path
       style="fill:none;stroke:#000000;stroke-width:0.264583px;stroke-linecap:butt;stroke-linejoin:miter;stroke-opacity:1;marker-start:url(#marker34426);marker-end:url(#Stop)"
       d="m 58.399391,146.14448 27.481651,-0.11285"
       id="path34392" /><path
       style="fill:none;stroke:#000000;stroke-width:0.264583px;stroke-linecap:butt;stroke-linejoin:miter;stroke-opacity:1;marker-start:url(#marker34426);marker-end:url(#Stop)"
       d="m 53.011652,142.26336 -0.11285,-23.77748"
       id="path34478"
       sodipodi:nodetypes="cc" /><ellipse
       style="font-variation-settings:normal;opacity:1;fill:#d45500;fill-opacity:1;stroke:#333333;stroke-width:0.35;stroke-linecap:round;stroke-linejoin:round;stroke-miterlimit:4;stroke-dasharray:none;stroke-dashoffset:0;stroke-opacity:1;paint-order:normal;stop-color:#000000;stop-opacity:1"
       id="path34540"
       cx="85.941742"
       cy="133.25233"
       rx="0.82499999"
       ry="0.75841111" /><path
       style="fill:none;stroke:#000000;stroke-width:0.5;stroke-linecap:round;stroke-linejoin:round;stroke-dasharray:none;stroke-opacity:1;marker-end:url(#Arrow1L)"
       d="M 58.570648,142.49351 58.457792,111.04724"
       id="path33459"
       sodipodi:nodetypes="cc" /><text
       xml:space="preserve"
       style="font-size:3.88056px;line-height:0.65;font-family:'EB Garamond';-inkscape-font-specification:'EB Garamond, Normal';text-align:end;letter-spacing:0.396875px;word-spacing:0px;text-anchor:end;stroke-width:0.264583"
       x="56.791622"
       y="111.40418"
       id="text37958"><tspan
         sodipodi:role="line"
         id="tspan37956"
         style="font-style:italic;font-size:3.88056px;stroke-width:0.264583"
         x="57.188496"
         y="111.40418">N</tspan></text><g
       id="g40327"
       transform="translate(5.2916676,0.0796831)"><rect
         style="font-variation-settings:normal;opacity:1;fill:#ffffff;fill-opacity:1;stroke:none;stroke-width:0.349999;stroke-linecap:round;stroke-linejoin:round;stroke-miterlimit:4;stroke-dasharray:none;stroke-dashoffset:0;stroke-opacity:1;paint-order:normal;stop-color:#000000;stop-opacity:1"
         id="rect40320"
         width="4.6677561"
         height="3.6682124"
         x="45.329681"
         y="128.46083" /><text
         xml:space="preserve"
         style="font-size:3.88056px;line-height:0.65;font-family:'EB Garamond';-inkscape-font-specification:'EB Garamond, Normal';text-align:end;letter-spacing:0.396875px;word-spacing:0px;text-anchor:end;stroke-width:0.264583"
         x="49.872963"
         y="131.12955"
         id="text37962"><tspan
           sodipodi:role="line"
           id="tspan37960"
           style="font-style:italic;font-size:3.88056px;stroke-width:0.264583"
           x="50.269836"
           y="131.12955"><tspan
             style="font-size:3.52778px"
             id="tspan39504">N</tspan><tspan
             style="font-style:normal;font-size:65%;baseline-shift:sub"
             id="tspan37964">0</tspan></tspan></text></g><text
       xml:space="preserve"
       style="font-size:3.88056px;line-height:0.65;font-family:'EB Garamond';-inkscape-font-specification:'EB Garamond, Normal';text-align:end;letter-spacing:0.396875px;word-spacing:0px;text-anchor:end;stroke-width:0.264583"
       x="56.791622"
       y="145.79997"
       id="text37970"><tspan
         sodipodi:role="line"
         id="tspan37968"
         style="font-style:normal;font-size:3.88056px;stroke-width:0.264583"
         x="57.188496"
         y="145.79997">0</tspan></text><text
       xml:space="preserve"
       style="font-size:3.88056px;line-height:0.65;font-family:'EB Garamond';-inkscape-font-specification:'EB Garamond, Normal';text-align:end;letter-spacing:0.396875px;word-spacing:0px;text-anchor:end;stroke-width:0.264583"
       x="127.69992"
       y="145.79997"
       id="text37974"><tspan
         sodipodi:role="line"
         id="tspan37972"
         style="font-style:italic;font-size:3.88056px;stroke-width:0.264583"
         x="128.0968"
         y="145.79997">t</tspan></text><g
       id="g40392"><g
         id="g40386"
         transform="translate(0.19359937,-9.2008625)"><rect
           style="font-variation-settings:normal;opacity:1;fill:#ffffff;fill-opacity:1;stroke:none;stroke-width:0.349999;stroke-linecap:round;stroke-linejoin:round;stroke-miterlimit:4;stroke-dasharray:none;stroke-dashoffset:0;stroke-opacity:1;paint-order:normal;stop-color:#000000;stop-opacity:1"
           id="rect40381"
           width="2.0412443"
           height="1.9996805"
           x="70.925995"
           y="154.28908" /><text
           xml:space="preserve"
           style="font-size:3.88056px;line-height:0.65;font-family:'EB Garamond';-inkscape-font-specification:'EB Garamond, Normal';text-align:end;letter-spacing:0.396875px;word-spacing:0px;text-anchor:end;stroke-width:0.264583"
           x="72.687805"
           y="156.10965"
           id="text37978"><tspan
             sodipodi:role="line"
             id="tspan37976"
             style="font-style:italic;font-size:3.88056px;stroke-width:0.264583"
             x="73.084679"
             y="156.10965">𝜏</tspan></text></g></g><text
       xml:space="preserve"
       style="font-size:3.58393px;line-height:0.65;font-family:'EB Garamond';-inkscape-font-specification:'EB Garamond, Normal';text-align:end;letter-spacing:-0.0395105px;word-spacing:0px;baseline-shift:baseline;text-anchor:end;stroke-width:0.264583"
       x="70.799141"
       y="138.71632"
       id="text40402"><tspan
         sodipodi:role="line"
         id="tspan40400"
         style="font-style:italic;baseline-shift:baseline;stroke-width:0.264583"
         x="70.759628"
         y="138.71632"><tspan
           style="baseline-shift:baseline;stroke-width:0.264583"
           id="tspan40396">N</tspan><tspan
           style="font-style:normal;baseline-shift:baseline;stroke-width:0.264583"
           id="tspan40398"
           dx="0 0.29665887"><tspan
   style="font-size:2.32955px;baseline-shift:sub;stroke-width:0.264583"
   id="tspan40503">0</tspan>/e</tspan></tspan></text><path
       style="fill:none;stroke:#808080;stroke-width:0.2;stroke-linecap:round;stroke-linejoin:miter;stroke-dasharray:none;stroke-dashoffset:0;stroke-opacity:1;marker-start:url(#Arrow1L);marker-end:url(#marker40419)"
       d="m 72.784167,134.77334 v 6.25206"
       id="path40411"
       sodipodi:nodetypes="cc" /></g></svg>
