<?xml version="1.0" encoding="UTF-8" standalone="no"?>
<!-- Created with Inkscape (http://www.inkscape.org/) -->

<svg
   id="svg2"
   version="1.1"
   inkscape:version="1.2.2 (b0a8486, 2022-12-01)"
   xml:space="preserve"
   width="302.36218"
   height="281.90176"
   viewBox="0 0 302.36219 281.90176"
   sodipodi:docname="die-graph2.svg"
   xmlns:inkscape="http://www.inkscape.org/namespaces/inkscape"
   xmlns:sodipodi="http://sodipodi.sourceforge.net/DTD/sodipodi-0.dtd"
   xmlns="http://www.w3.org/2000/svg"
   xmlns:svg="http://www.w3.org/2000/svg"
   xmlns:rdf="http://www.w3.org/1999/02/22-rdf-syntax-ns#"
   xmlns:cc="http://creativecommons.org/ns#"
   xmlns:dc="http://purl.org/dc/elements/1.1/"><metadata
     id="metadata8"><rdf:RDF><cc:Work
         rdf:about=""><dc:format>image/svg+xml</dc:format><dc:type
           rdf:resource="http://purl.org/dc/dcmitype/StillImage" /></cc:Work></rdf:RDF></metadata><defs
     id="defs6"><marker
       style="overflow:visible"
       id="marker2207"
       refX="0"
       refY="0"
       orient="auto-start-reverse"
       inkscape:stockid="Arrow1L"
       markerWidth="8.75"
       markerHeight="5"
       viewBox="0 0 8.75 5"
       inkscape:isstock="true"
       inkscape:collect="always"
       preserveAspectRatio="xMidYMid"><path
         style="fill:context-stroke;fill-rule:evenodd;stroke:none"
         d="M 0,0 5,-5 -12.5,0 5,5 Z"
         id="path2205"
         transform="scale(-0.5)" /></marker><marker
       style="overflow:visible"
       id="marker2127"
       refX="0"
       refY="0"
       orient="auto-start-reverse"
       inkscape:stockid="Arrow1L"
       markerWidth="8.75"
       markerHeight="5"
       viewBox="0 0 8.75 5"
       inkscape:isstock="true"
       inkscape:collect="always"
       preserveAspectRatio="xMidYMid"><path
         style="fill:context-stroke;fill-rule:evenodd;stroke:none"
         d="M 0,0 5,-5 -12.5,0 5,5 Z"
         id="path2125"
         transform="scale(-0.5)" /></marker><marker
       style="overflow:visible"
       id="Arrow1L"
       refX="0"
       refY="0"
       orient="auto-start-reverse"
       inkscape:stockid="Arrow1L"
       markerWidth="8.75"
       markerHeight="5"
       viewBox="0 0 8.75 5"
       inkscape:isstock="true"
       inkscape:collect="always"
       preserveAspectRatio="xMidYMid"><path
         style="fill:context-stroke;fill-rule:evenodd;stroke:none"
         d="M 0,0 5,-5 -12.5,0 5,5 Z"
         id="arrow1L"
         transform="scale(-0.5)" /></marker><marker
       inkscape:stockid="Arrow1Lstart"
       orient="auto"
       refY="0"
       refX="0"
       id="marker6247"
       style="overflow:visible"
       inkscape:isstock="true"><path
         id="path6249"
         d="M 0,0 5,-5 -12.5,0 5,5 Z"
         style="fill:#ff4500;fill-opacity:1;fill-rule:evenodd;stroke:#ff4500;stroke-width:1pt;stroke-opacity:1"
         transform="matrix(0.8,0,0,0.8,10,0)"
         inkscape:connector-curvature="0" /></marker><marker
       inkscape:stockid="Arrow1Lend"
       orient="auto"
       refY="0"
       refX="0"
       id="Arrow1Lend"
       style="overflow:visible"
       inkscape:isstock="true"><path
         id="path4652"
         d="M 0,0 5,-5 -12.5,0 5,5 Z"
         style="fill:#ff4500;fill-opacity:1;fill-rule:evenodd;stroke:#ff4500;stroke-width:1pt;stroke-opacity:1"
         transform="matrix(-0.8,0,0,-0.8,-10,0)"
         inkscape:connector-curvature="0" /></marker></defs><sodipodi:namedview
     pagecolor="#ffffff"
     bordercolor="#666666"
     borderopacity="1"
     objecttolerance="10"
     gridtolerance="10"
     guidetolerance="10"
     inkscape:pageopacity="0"
     inkscape:pageshadow="2"
     inkscape:window-width="1309"
     inkscape:window-height="396"
     id="namedview4"
     showgrid="false"
     inkscape:zoom="1.0614986"
     inkscape:cx="85.256824"
     inkscape:cy="197.83351"
     inkscape:window-x="0"
     inkscape:window-y="0"
     inkscape:window-maximized="0"
     inkscape:current-layer="g10"
     fit-margin-top="0"
     fit-margin-left="0"
     fit-margin-right="0"
     fit-margin-bottom="0"
     inkscape:showpageshadow="2"
     inkscape:pagecheckerboard="0"
     inkscape:deskcolor="#d1d1d1" /><g
     id="g10"
     inkscape:groupmode="layer"
     inkscape:label="fig-02"
     transform="matrix(1.25,0,0,-1.25,-591.60998,509.59368)"><g
   id="g6223"
   style="font-style:normal;font-variant:normal;font-weight:normal;font-stretch:normal;font-size:84.7674px;line-height:125%;font-family:Alegreya;-inkscape-font-specification:Alegreya;text-align:start;letter-spacing:0px;word-spacing:0px;writing-mode:lr-tb;text-anchor:start;fill:#000000;fill-opacity:1;stroke:none;stroke-width:1px;stroke-linecap:butt;stroke-linejoin:miter;stroke-opacity:1"
   transform="matrix(0.14414103,0,0,-0.14414103,434.791,412.24488)" /><path
   style="color:#000000;clip-rule:nonzero;display:inline;overflow:visible;visibility:visible;opacity:1;isolation:auto;mix-blend-mode:normal;color-interpolation:sRGB;color-interpolation-filters:linearRGB;solid-color:#000000;solid-opacity:1;fill:#ffaacc;fill-opacity:1;fill-rule:nonzero;stroke:none;stroke-width:1.06597;stroke-linecap:round;stroke-linejoin:round;stroke-miterlimit:4;stroke-dasharray:none;stroke-dashoffset:0;stroke-opacity:1;color-rendering:auto;image-rendering:auto;shape-rendering:auto;text-rendering:auto;enable-background:accumulate"
   d="m 499.03694,393.37556 0.25241,-149.71187 h 182.12528 l 0.27695,1.4292 -7.90303,-4.53448 -7.23115,7.93284 -7.0543,-7.91894 -7.75532,4.70362 -7.99353,-5.13145 -8.25971,5.7364 -7.61181,-3.0839 -7.34263,9.91483 -8.02308,-14.24747 -7.18047,6.63952 -8.10564,-1.45749 -6.86087,7.47226 -7.1727,-6.9713 -8.10113,-7.68397 -5.70629,18.9786 -9.08557,-3.18575 -7.03704,14.85729 -7.93675,-8.71449 -8.41032,-4.65008 -6.76748,28.4641 -7.20751,-15.21045 -6.88147,31.81499 -8.44483,10.77226 -5.69041,83.75335 z"
   id="rect6422-2"
   inkscape:connector-curvature="0"
   sodipodi:nodetypes="ccccccccccccccccccccccccccccc" /><path
   style="fill:none;fill-rule:evenodd;stroke:#ff4500;stroke-width:0.540933;stroke-linecap:round;stroke-linejoin:miter;stroke-miterlimit:4;stroke-dasharray:none;stroke-opacity:1"
   d="M 498.92906,243.72568 H 703.96898"
   id="path6185-8"
   inkscape:connector-curvature="0"
   sodipodi:nodetypes="cc" /><path
   style="fill:none;fill-rule:evenodd;stroke:#333333;stroke-width:0.805773;stroke-linecap:butt;stroke-linejoin:miter;stroke-miterlimit:4;stroke-dasharray:none;stroke-opacity:1;marker-start:url(#Arrow1L)"
   d="M 499.0458,402.63886 V 201.02215"
   id="path5263"
   inkscape:connector-curvature="0"
   sodipodi:nodetypes="cc" /><text
   xml:space="preserve"
   style="font-style:normal;font-variant:normal;font-weight:normal;font-stretch:normal;font-size:8.53333334px;line-height:0%;font-family:'EB Garamond';-inkscape-font-specification:'EB Garamond, Normal';font-variant-ligatures:normal;font-variant-caps:normal;font-variant-numeric:normal;font-variant-east-asian:normal;text-align:start;letter-spacing:0px;word-spacing:0px;writing-mode:lr-tb;text-anchor:start;fill:#000000;fill-opacity:1;stroke:none;stroke-width:0.532986px;stroke-linecap:butt;stroke-linejoin:miter;stroke-opacity:1"
   x="481.47403"
   y="-391.58334"
   id="text6077-2"
   transform="scale(0.9999952,-1.0000048)"><tspan
     sodipodi:role="line"
     id="tspan6079-8"
     x="481.47403"
     y="-391.58334"
     style="font-style:normal;font-variant:normal;font-weight:normal;font-stretch:normal;line-height:1.25;font-family:'EB Garamond';-inkscape-font-specification:'EB Garamond, Normal';font-variant-ligatures:normal;font-variant-caps:normal;font-variant-numeric:normal;font-variant-east-asian:normal;stroke-width:0.532986px;font-size:8.53333334px">0.22</tspan></text>
<path
   style="fill:none;fill-rule:evenodd;stroke:#000000;stroke-width:0.360622;stroke-linecap:butt;stroke-linejoin:miter;stroke-miterlimit:4;stroke-dasharray:none;stroke-opacity:1"
   d="m 499.37947,393.99245 h 4.12214"
   id="path6081-3"
   inkscape:connector-curvature="0"
   sodipodi:nodetypes="cc" /><text
   id="text6083-6"
   y="-363.55267"
   x="481.47403"
   style="font-style:normal;font-variant:normal;font-weight:normal;font-stretch:normal;font-size:8.53333334px;line-height:0%;font-family:'EB Garamond';-inkscape-font-specification:'EB Garamond, Normal';font-variant-ligatures:normal;font-variant-caps:normal;font-variant-numeric:normal;font-variant-east-asian:normal;text-align:start;letter-spacing:0px;word-spacing:0px;writing-mode:lr-tb;text-anchor:start;fill:#000000;fill-opacity:1;stroke:none;stroke-width:0.532986px;stroke-linecap:butt;stroke-linejoin:miter;stroke-opacity:1"
   xml:space="preserve"
   transform="scale(0.9999952,-1.0000048)"><tspan
     y="-363.55267"
     x="481.47403"
     id="tspan6085-8"
     sodipodi:role="line"
     style="font-style:normal;font-variant:normal;font-weight:normal;font-stretch:normal;line-height:1.25;font-family:'EB Garamond';-inkscape-font-specification:'EB Garamond, Normal';font-variant-ligatures:normal;font-variant-caps:normal;font-variant-numeric:normal;font-variant-east-asian:normal;stroke-width:0.532986px;font-size:8.53333334px">0.21</tspan></text>
<path
   inkscape:connector-curvature="0"
   id="path6087-5"
   d="m 499.37947,365.96162 h 4.12214"
   style="fill:none;fill-rule:evenodd;stroke:#000000;stroke-width:0.360622;stroke-linecap:butt;stroke-linejoin:miter;stroke-miterlimit:4;stroke-dasharray:none;stroke-opacity:1"
   sodipodi:nodetypes="cc" /><text
   xml:space="preserve"
   style="font-style:normal;font-variant:normal;font-weight:normal;font-stretch:normal;font-size:8.53333334px;line-height:0%;font-family:'EB Garamond';-inkscape-font-specification:'EB Garamond, Normal';font-variant-ligatures:normal;font-variant-caps:normal;font-variant-numeric:normal;font-variant-east-asian:normal;text-align:start;letter-spacing:0px;word-spacing:0px;writing-mode:lr-tb;text-anchor:start;fill:#000000;fill-opacity:1;stroke:none;stroke-width:0.532986px;stroke-linecap:butt;stroke-linejoin:miter;stroke-opacity:1"
   x="481.06183"
   y="-336.34641"
   id="text6089-4"
   transform="scale(0.9999952,-1.0000048)"><tspan
     sodipodi:role="line"
     id="tspan6091-8"
     x="481.06183"
     y="-336.34641"
     style="font-style:normal;font-variant:normal;font-weight:normal;font-stretch:normal;line-height:1.25;font-family:'EB Garamond';-inkscape-font-specification:'EB Garamond, Normal';font-variant-ligatures:normal;font-variant-caps:normal;font-variant-numeric:normal;font-variant-east-asian:normal;stroke-width:0.532986px;font-size:8.53333334px">0.20</tspan></text>
<path
   style="fill:none;fill-rule:evenodd;stroke:#000000;stroke-width:0.360622;stroke-linecap:butt;stroke-linejoin:miter;stroke-miterlimit:4;stroke-dasharray:none;stroke-opacity:1"
   d="m 498.55504,338.75524 h 4.12214"
   id="path6093-9"
   inkscape:connector-curvature="0"
   sodipodi:nodetypes="cc" /><text
   id="text6095-0"
   y="-308.3157"
   x="481.47403"
   style="font-style:normal;font-variant:normal;font-weight:normal;font-stretch:normal;font-size:8.53333334px;line-height:0%;font-family:'EB Garamond';-inkscape-font-specification:'EB Garamond, Normal';font-variant-ligatures:normal;font-variant-caps:normal;font-variant-numeric:normal;font-variant-east-asian:normal;text-align:start;letter-spacing:0px;word-spacing:0px;writing-mode:lr-tb;text-anchor:start;fill:#000000;fill-opacity:1;stroke:none;stroke-width:0.532986px;stroke-linecap:butt;stroke-linejoin:miter;stroke-opacity:1"
   xml:space="preserve"
   transform="scale(0.9999952,-1.0000048)"><tspan
     y="-308.3157"
     x="481.47403"
     id="tspan6097-3"
     sodipodi:role="line"
     style="font-style:normal;font-variant:normal;font-weight:normal;font-stretch:normal;line-height:1.25;font-family:'EB Garamond';-inkscape-font-specification:'EB Garamond, Normal';font-variant-ligatures:normal;font-variant-caps:normal;font-variant-numeric:normal;font-variant-east-asian:normal;stroke-width:0.532986px;font-size:8.53333334px">0.19</tspan></text>
<path
   inkscape:connector-curvature="0"
   id="path6099-4"
   d="m 498.55504,310.72442 h 4.12214"
   style="fill:none;fill-rule:evenodd;stroke:#000000;stroke-width:0.360622;stroke-linecap:butt;stroke-linejoin:miter;stroke-miterlimit:4;stroke-dasharray:none;stroke-opacity:1"
   sodipodi:nodetypes="cc" /><text
   xml:space="preserve"
   style="font-style:normal;font-variant:normal;font-weight:normal;font-stretch:normal;font-size:8.53333334px;line-height:0%;font-family:'EB Garamond';-inkscape-font-specification:'EB Garamond, Normal';font-variant-ligatures:normal;font-variant-caps:normal;font-variant-numeric:normal;font-variant-east-asian:normal;text-align:start;letter-spacing:0px;word-spacing:0px;writing-mode:lr-tb;text-anchor:start;fill:#000000;fill-opacity:1;stroke:none;stroke-width:0.532986px;stroke-linecap:butt;stroke-linejoin:miter;stroke-opacity:1"
   x="481.47403"
   y="-280.28503"
   id="text6101-6"
   transform="scale(0.9999952,-1.0000048)"><tspan
     sodipodi:role="line"
     id="tspan6103-3"
     x="481.47403"
     y="-280.28503"
     style="font-style:normal;font-variant:normal;font-weight:normal;font-stretch:normal;line-height:1.25;font-family:'EB Garamond';-inkscape-font-specification:'EB Garamond, Normal';font-variant-ligatures:normal;font-variant-caps:normal;font-variant-numeric:normal;font-variant-east-asian:normal;stroke-width:0.532986px;font-size:8.53333334px">0.18</tspan></text>
<path
   style="fill:none;fill-rule:evenodd;stroke:#000000;stroke-width:0.360622;stroke-linecap:butt;stroke-linejoin:miter;stroke-miterlimit:4;stroke-dasharray:none;stroke-opacity:1"
   d="m 498.55504,282.69359 h 4.12214"
   id="path6105-5"
   inkscape:connector-curvature="0"
   sodipodi:nodetypes="cc" /><text
   id="text6107-5"
   y="-253.07878"
   x="481.47403"
   style="font-style:normal;font-variant:normal;font-weight:normal;font-stretch:normal;font-size:8.53333334px;line-height:0%;font-family:'EB Garamond';-inkscape-font-specification:'EB Garamond, Normal';font-variant-ligatures:normal;font-variant-caps:normal;font-variant-numeric:normal;font-variant-east-asian:normal;text-align:start;letter-spacing:0px;word-spacing:0px;writing-mode:lr-tb;text-anchor:start;fill:#000000;fill-opacity:1;stroke:none;stroke-width:0.532986px;stroke-linecap:butt;stroke-linejoin:miter;stroke-opacity:1"
   xml:space="preserve"
   transform="scale(0.9999952,-1.0000048)"><tspan
     y="-253.07878"
     x="481.47403"
     id="tspan6109-6"
     sodipodi:role="line"
     style="font-style:normal;font-variant:normal;font-weight:normal;font-stretch:normal;line-height:1.25;font-family:'EB Garamond';-inkscape-font-specification:'EB Garamond, Normal';font-variant-ligatures:normal;font-variant-caps:normal;font-variant-numeric:normal;font-variant-east-asian:normal;stroke-width:0.532986px;font-size:8.53333334px">0.17</tspan></text>
<path
   inkscape:connector-curvature="0"
   id="path6111-1"
   d="m 497.73062,255.48721 h 4.12214"
   style="fill:none;fill-rule:evenodd;stroke:#000000;stroke-width:0.360622;stroke-linecap:butt;stroke-linejoin:miter;stroke-miterlimit:4;stroke-dasharray:none;stroke-opacity:1"
   sodipodi:nodetypes="cc" /><text
   xml:space="preserve"
   style="font-style:normal;font-variant:normal;font-weight:normal;font-stretch:normal;font-size:8.53333334px;line-height:0%;font-family:'EB Garamond';-inkscape-font-specification:'EB Garamond, Normal';font-variant-ligatures:normal;font-variant-caps:normal;font-variant-numeric:normal;font-variant-east-asian:normal;text-align:start;letter-spacing:0px;word-spacing:0px;writing-mode:lr-tb;text-anchor:start;fill:#000000;fill-opacity:1;stroke:none;stroke-width:0.532986px;stroke-linecap:butt;stroke-linejoin:miter;stroke-opacity:1"
   x="500.10886"
   y="-191.0609"
   id="text6113"
   transform="scale(0.9999952,-1.0000048)"><tspan
     sodipodi:role="line"
     id="tspan6115"
     x="500.10886"
     y="-191.0609"
     style="font-style:normal;font-variant:normal;font-weight:normal;font-stretch:normal;line-height:1.25;font-family:'EB Garamond';-inkscape-font-specification:'EB Garamond, Normal';font-variant-ligatures:normal;font-variant-caps:normal;font-variant-numeric:normal;font-variant-east-asian:normal;stroke-width:0.532986px;font-size:8.53333334px">100</tspan></text>
<path
   style="fill:none;fill-rule:evenodd;stroke:#000000;stroke-width:0.360622;stroke-linecap:butt;stroke-linejoin:miter;stroke-miterlimit:4;stroke-dasharray:none;stroke-opacity:1"
   d="m 497.73062,227.04416 h 4.12214"
   id="path6117-3"
   inkscape:connector-curvature="0"
   sodipodi:nodetypes="cc" /><text
   xml:space="preserve"
   style="font-style:normal;font-variant:normal;font-weight:normal;font-stretch:normal;font-size:8.53333334px;line-height:0%;font-family:'EB Garamond';-inkscape-font-specification:'EB Garamond, Normal';font-variant-ligatures:normal;font-variant-caps:normal;font-variant-numeric:normal;font-variant-east-asian:normal;text-align:start;letter-spacing:0px;word-spacing:0px;writing-mode:lr-tb;text-anchor:start;fill:#000000;fill-opacity:1;stroke:none;stroke-width:0.532986px;stroke-linecap:butt;stroke-linejoin:miter;stroke-opacity:1"
   x="706.03131"
   y="-206.95184"
   id="text6153"
   transform="scale(0.9999952,-1.0000048)"><tspan
     sodipodi:role="line"
     id="tspan6155"
     x="706.03131"
     y="-206.95184"
     style="font-style:italic;font-variant:normal;font-weight:normal;font-stretch:normal;line-height:1.25;font-family:'EB Garamond';-inkscape-font-specification:'EB Garamond, Normal';font-variant-ligatures:normal;font-variant-caps:normal;font-variant-numeric:normal;font-variant-east-asian:normal;stroke-width:0.532986px;font-size:8.53333334px">N</tspan></text>
<text
   id="text6157"
   y="-191.0609"
   x="530.64124"
   style="font-style:normal;font-variant:normal;font-weight:normal;font-stretch:normal;font-size:8.53333334px;line-height:0%;font-family:'EB Garamond';-inkscape-font-specification:'EB Garamond, Normal';font-variant-ligatures:normal;font-variant-caps:normal;font-variant-numeric:normal;font-variant-east-asian:normal;text-align:start;letter-spacing:0px;word-spacing:0px;writing-mode:lr-tb;text-anchor:start;fill:#000000;fill-opacity:1;stroke:none;stroke-width:0.532986px;stroke-linecap:butt;stroke-linejoin:miter;stroke-opacity:1"
   xml:space="preserve"
   transform="scale(0.9999952,-1.0000048)"><tspan
     y="-191.0609"
     x="530.64124"
     id="tspan6159"
     sodipodi:role="line"
     style="font-style:normal;font-variant:normal;font-weight:normal;font-stretch:normal;line-height:1.25;font-family:'EB Garamond';-inkscape-font-specification:'EB Garamond, Normal';font-variant-ligatures:normal;font-variant-caps:normal;font-variant-numeric:normal;font-variant-east-asian:normal;stroke-width:0.532986px;font-size:8.53333334px">500</tspan></text>
<text
   xml:space="preserve"
   style="font-style:normal;font-variant:normal;font-weight:normal;font-stretch:normal;font-size:8.53333334px;line-height:0%;font-family:'EB Garamond';-inkscape-font-specification:'EB Garamond, Normal';font-variant-ligatures:normal;font-variant-caps:normal;font-variant-numeric:normal;font-variant-east-asian:normal;text-align:start;letter-spacing:0px;word-spacing:0px;writing-mode:lr-tb;text-anchor:start;fill:#000000;fill-opacity:1;stroke:none;stroke-width:0.532986px;stroke-linecap:butt;stroke-linejoin:miter;stroke-opacity:1"
   x="568.12451"
   y="-191.0609"
   id="text6161"
   transform="scale(0.9999952,-1.0000048)"><tspan
     sodipodi:role="line"
     id="tspan6163"
     x="568.12451"
     y="-191.0609"
     style="font-style:normal;font-variant:normal;font-weight:normal;font-stretch:normal;line-height:1.25;font-family:'EB Garamond';-inkscape-font-specification:'EB Garamond, Normal';font-variant-ligatures:normal;font-variant-caps:normal;font-variant-numeric:normal;font-variant-east-asian:normal;stroke-width:0.532986px;font-size:8.53333334px">1000</tspan></text>
<text
   id="text6165"
   y="-191.0609"
   x="606.90118"
   style="font-style:normal;font-variant:normal;font-weight:normal;font-stretch:normal;font-size:8.53333334px;line-height:0%;font-family:'EB Garamond';-inkscape-font-specification:'EB Garamond, Normal';font-variant-ligatures:normal;font-variant-caps:normal;font-variant-numeric:normal;font-variant-east-asian:normal;text-align:start;letter-spacing:0px;word-spacing:0px;writing-mode:lr-tb;text-anchor:start;fill:#000000;fill-opacity:1;stroke:none;stroke-width:0.532986px;stroke-linecap:butt;stroke-linejoin:miter;stroke-opacity:1"
   xml:space="preserve"
   transform="scale(0.9999952,-1.0000048)"><tspan
     y="-191.0609"
     x="606.90118"
     id="tspan6167"
     sodipodi:role="line"
     style="font-style:normal;font-variant:normal;font-weight:normal;font-stretch:normal;line-height:1.25;font-family:'EB Garamond';-inkscape-font-specification:'EB Garamond, Normal';font-variant-ligatures:normal;font-variant-caps:normal;font-variant-numeric:normal;font-variant-east-asian:normal;stroke-width:0.532986px;font-size:8.53333334px">1500</tspan></text>
<text
   xml:space="preserve"
   style="font-style:normal;font-variant:normal;font-weight:normal;font-stretch:normal;font-size:8.53333334px;line-height:0%;font-family:'EB Garamond';-inkscape-font-specification:'EB Garamond, Normal';font-variant-ligatures:normal;font-variant-caps:normal;font-variant-numeric:normal;font-variant-east-asian:normal;text-align:start;letter-spacing:0px;word-spacing:0px;writing-mode:lr-tb;text-anchor:start;fill:#000000;fill-opacity:1;stroke:none;stroke-width:0.532986px;stroke-linecap:butt;stroke-linejoin:miter;stroke-opacity:1"
   x="645.67792"
   y="-191.0609"
   id="text6169"
   transform="scale(0.9999952,-1.0000048)"><tspan
     sodipodi:role="line"
     id="tspan6171"
     x="645.67792"
     y="-191.0609"
     style="font-style:normal;font-variant:normal;font-weight:normal;font-stretch:normal;line-height:1.25;font-family:'EB Garamond';-inkscape-font-specification:'EB Garamond, Normal';font-variant-ligatures:normal;font-variant-caps:normal;font-variant-numeric:normal;font-variant-east-asian:normal;stroke-width:0.532986px;font-size:8.53333334px">2000</tspan></text>
<text
   id="text6173"
   y="-191.0609"
   x="684.83838"
   style="font-style:normal;font-variant:normal;font-weight:normal;font-stretch:normal;font-size:8.53333334px;line-height:0%;font-family:'EB Garamond';-inkscape-font-specification:'EB Garamond, Normal';font-variant-ligatures:normal;font-variant-caps:normal;font-variant-numeric:normal;font-variant-east-asian:normal;text-align:start;letter-spacing:0px;word-spacing:0px;writing-mode:lr-tb;text-anchor:start;fill:#000000;fill-opacity:1;stroke:none;stroke-width:0.532986px;stroke-linecap:butt;stroke-linejoin:miter;stroke-opacity:1"
   xml:space="preserve"
   transform="scale(0.9999952,-1.0000048)"><tspan
     y="-191.0609"
     x="684.83838"
     id="tspan6175"
     sodipodi:role="line"
     style="font-style:normal;font-variant:normal;font-weight:normal;font-stretch:normal;line-height:1.25;font-family:'EB Garamond';-inkscape-font-specification:'EB Garamond, Normal';font-variant-ligatures:normal;font-variant-caps:normal;font-variant-numeric:normal;font-variant-east-asian:normal;stroke-width:0.532986px;font-size:8.53333334px">2500</tspan></text>
<text
   xml:space="preserve"
   style="font-style:normal;font-variant:normal;font-weight:normal;font-stretch:normal;font-size:8.53333334px;line-height:0%;font-family:'EB Garamond';-inkscape-font-specification:'EB Garamond, Normal';font-variant-ligatures:normal;font-variant-caps:normal;font-variant-numeric:normal;font-variant-east-asian:normal;text-align:start;letter-spacing:0px;word-spacing:0px;writing-mode:lr-tb;text-anchor:start;fill:#000000;fill-opacity:1;stroke:none;stroke-width:0.532986px;stroke-linecap:butt;stroke-linejoin:miter;stroke-opacity:1"
   x="481.47403"
   y="-224.22366"
   id="text6177-1"
   transform="scale(0.9999952,-1.0000048)"><tspan
     sodipodi:role="line"
     id="tspan6179-7"
     x="481.47403"
     y="-224.22366"
     style="font-style:normal;font-variant:normal;font-weight:normal;font-stretch:normal;line-height:1.25;font-family:'EB Garamond';-inkscape-font-specification:'EB Garamond, Normal';font-variant-ligatures:normal;font-variant-caps:normal;font-variant-numeric:normal;font-variant-east-asian:normal;stroke-width:0.532986px;font-size:8.53333334px">0.16</tspan></text>
<path
   style="fill:none;fill-rule:evenodd;stroke:#333333;stroke-width:0.755906;stroke-linecap:butt;stroke-linejoin:miter;stroke-miterlimit:4;stroke-dasharray:none;stroke-opacity:1;marker-start:url(#marker2207);marker-end:url(#marker2127)"
   d="M 518.06046,238.72553 V 205.54391"
   id="path6187"
   inkscape:connector-curvature="0"
   sodipodi:nodetypes="cc" /><g
   style="font-style:normal;font-variant:normal;font-weight:normal;font-stretch:normal;font-size:84.7674px;line-height:125%;font-family:Alegreya;-inkscape-font-specification:Alegreya;text-align:start;letter-spacing:0px;word-spacing:0px;writing-mode:lr-tb;text-anchor:start;fill:#000000;fill-opacity:1;stroke:none;stroke-width:1px;stroke-linecap:butt;stroke-linejoin:miter;stroke-opacity:1"
   id="text6189"
   transform="matrix(0.11891486,0,0,-0.11891601,442.97132,361.93847)" /><g
   id="g2833"
   transform="matrix(0.53298573,0,0,0.53298573,221.03224,190.39002)"><path
     style="color:#000000;clip-rule:nonzero;display:inline;overflow:visible;visibility:visible;isolation:auto;mix-blend-mode:normal;color-interpolation:sRGB;color-interpolation-filters:linearRGB;solid-color:#000000;solid-opacity:1;fill:#ffffff;fill-opacity:1;fill-rule:nonzero;stroke:#ff0000;stroke-width:0;stroke-linecap:round;stroke-linejoin:round;stroke-miterlimit:4;stroke-dasharray:none;stroke-dashoffset:0;stroke-opacity:1;color-rendering:auto;image-rendering:auto;shape-rendering:auto;text-rendering:auto;enable-background:accumulate"
     d="m 525.94196,54.213223 -1.31295,-1.602487 -0.30286,-0.07905 c -1.02128,0 -3.66893,0.847607 -4.53891,0.847607 -0.66544,-0.360439 -1.23798,-1.000751 -1.72039,-1.600702 v -3.621547 l 1.43671,1.753779 0.30242,0.07903 c 1.02128,0 3.66937,-0.847584 4.53935,-0.847584 0.68481,0.309748 1.24144,0.967931 1.59663,1.621161 z"
     id="rect6208"
     inkscape:connector-curvature="0"
     sodipodi:nodetypes="ccccccccccc" /><g
     style="font-style:normal;font-variant:normal;font-weight:normal;font-stretch:normal;font-size:84.7674px;line-height:125%;font-family:Alegreya;-inkscape-font-specification:Alegreya;text-align:start;letter-spacing:0px;word-spacing:0px;writing-mode:lr-tb;text-anchor:start;fill:#333333;fill-opacity:1;stroke:none;stroke-width:1px;stroke-linecap:butt;stroke-linejoin:miter;stroke-opacity:1"
     id="text6193"
     transform="matrix(0.22311078,0,0,-0.22311294,416.40717,321.86312)"><path
       inkscape:connector-curvature="0"
       id="path6198"
       d="m 458.02014,1228.084 c 0,0 3.30593,-4.6622 5.34035,-4.6622 3.8993,0 15.76674,3.645 20.34418,3.645 l 1.35628,-0.3391 6.44232,-7.5443 v -0.4238 l -1.86488,-1.7801 h -0.50861 c 0,0 -3.30593,4.6622 -5.34035,4.6622 -3.8993,0 -15.76674,-3.645 -20.34418,-3.645 l -1.35628,0.3391 -6.44232,7.5443 v 0.4238 l 1.86488,1.7801 z m 0,-20 c 0,0 3.30593,-4.6622 5.34035,-4.6622 3.8993,0 15.76674,3.645 20.34418,3.645 l 1.35628,-0.3391 6.44232,-7.5443 v -0.4238 l -1.86488,-1.7801 h -0.50861 c 0,0 -3.30593,4.6622 -5.34035,4.6622 -3.8993,0 -15.76674,-3.645 -20.34418,-3.645 l -1.35628,0.3391 -6.44232,7.5443 v 0.4238 l 1.86488,1.7801 z"
       style="fill:#333333;fill-opacity:1" /></g></g><g
   id="g3819"
   transform="matrix(0.53298573,0,0,-0.53298573,482.47364,403.83685)"
   style="stroke:#333333;stroke-width:1.51181;stroke-dasharray:none"><path
     d="M 30.382513,381.004 H 432.698"
     style="fill:none;stroke:#333333;stroke-width:1.51181;stroke-linecap:butt;stroke-linejoin:miter;stroke-miterlimit:4;stroke-dasharray:none;stroke-opacity:1"
     id="path3821"
     inkscape:connector-curvature="0"
     sodipodi:nodetypes="cc" /></g><g
   id="g3823"
   transform="matrix(0.53298573,0,0,-0.53298573,482.47364,403.83685)"><path
     d="m 30.898,381.004 v -7.199"
     style="fill:none;stroke:#000000;stroke-width:0.8;stroke-linecap:butt;stroke-linejoin:miter;stroke-miterlimit:4;stroke-dasharray:none;stroke-opacity:1"
     id="path3825"
     inkscape:connector-curvature="0" /></g><g
   id="g3827"
   transform="matrix(0.53298573,0,0,-0.53298573,482.47364,403.83685)"><path
     d="m 45.059,381.004 v -3.602 m 14.64,3.602 v -3.602 m 14.641,3.602 v -3.602 m 14.719,3.602 v -3.602 m 14.64,3.602 v -7.199"
     style="fill:none;stroke:#000000;stroke-width:0.8;stroke-linecap:butt;stroke-linejoin:miter;stroke-miterlimit:4;stroke-dasharray:none;stroke-opacity:1"
     id="path3829"
     inkscape:connector-curvature="0" /></g><g
   id="g3831"
   transform="matrix(0.53298573,0,0,-0.53298573,482.47364,403.83685)"><path
     d="m 118.34,381.004 v -3.602 m 14.64,3.602 v -3.602 m 14.641,3.602 v -3.602 m 14.637,3.602 v -3.602 m 14.64,3.602 v -7.199"
     style="fill:none;stroke:#000000;stroke-width:0.8;stroke-linecap:butt;stroke-linejoin:miter;stroke-miterlimit:4;stroke-dasharray:none;stroke-opacity:1"
     id="path3833"
     inkscape:connector-curvature="0" /></g><g
   id="g3835"
   transform="matrix(0.53298573,0,0,-0.53298573,482.47364,403.83685)"><path
     d="m 191.621,381.004 v -3.602 m 14.637,3.602 v -3.602 m 14.64,3.602 v -3.602 m 14.641,3.602 v -3.602 m 14.641,3.602 v -7.199"
     style="fill:none;stroke:#000000;stroke-width:0.8;stroke-linecap:butt;stroke-linejoin:miter;stroke-miterlimit:4;stroke-dasharray:none;stroke-opacity:1"
     id="path3837"
     inkscape:connector-curvature="0" /></g><g
   id="g3839"
   transform="matrix(0.53298573,0,0,-0.53298573,482.47364,403.83685)"><path
     d="m 264.82,381.004 v -3.602 m 14.641,3.602 v -3.602 m 14.719,3.602 v -3.602 m 14.64,3.602 v -3.602 m 14.641,3.602 v -7.199"
     style="fill:none;stroke:#000000;stroke-width:0.8;stroke-linecap:butt;stroke-linejoin:miter;stroke-miterlimit:4;stroke-dasharray:none;stroke-opacity:1"
     id="path3841"
     inkscape:connector-curvature="0" /></g><g
   id="g3843"
   transform="matrix(0.53298573,0,0,-0.53298573,482.47364,403.83685)"><path
     d="m 338.098,381.004 v -3.602 m 14.64,3.602 v -3.602 m 14.641,3.602 v -3.602 m 14.641,3.602 v -3.602 m 14.718,3.602 v -7.199"
     style="fill:none;stroke:#000000;stroke-width:0.8;stroke-linecap:butt;stroke-linejoin:miter;stroke-miterlimit:4;stroke-dasharray:none;stroke-opacity:1"
     id="path3845"
     inkscape:connector-curvature="0" /></g><g
   id="g3847"
   transform="matrix(0.53298573,0,0,-0.53298573,468.93098,403.83685)" /><g
   id="g3855"
   transform="matrix(-0.53298573,0,0,0.53298573,469.08862,403.83685)"><path
     d="m -449.898,-381.004 4,-4 -14,4 14,4 z"
     style="fill:#000000;fill-opacity:1;fill-rule:evenodd;stroke:#000000;stroke-width:1;stroke-linecap:butt;stroke-linejoin:miter;stroke-miterlimit:4;stroke-dasharray:none;stroke-opacity:1"
     id="path3857"
     inkscape:connector-curvature="0" /></g><text
   y="-217.8383"
   x="520.79645"
   transform="scale(1,-1)"
   style="font-style:normal;font-variant:normal;font-weight:normal;font-stretch:normal;font-size:8.53333px;line-height:0%;font-family:'EB Garamond';-inkscape-font-specification:'EB Garamond, Normal';font-variant-ligatures:normal;font-variant-caps:normal;font-variant-numeric:normal;font-variant-east-asian:normal;writing-mode:lr-tb;fill:#000000;fill-opacity:1;fill-rule:nonzero;stroke:none;stroke-width:0.532986"
   id="text3859"><tspan
     sodipodi:role="line"
     id="tspan3861"
     style="font-style:normal;font-variant:normal;font-weight:normal;font-stretch:normal;font-size:8.53333px;line-height:1.25;font-family:'EB Garamond';-inkscape-font-specification:'EB Garamond, Normal';font-variant-ligatures:normal;font-variant-caps:normal;font-variant-numeric:normal;font-variant-east-asian:normal;stroke-width:0.532986"
     x="520.79645"
     y="-217.8383">1/6 = 0.167</tspan></text>
<text
   xml:space="preserve"
   style="font-style:normal;font-variant:normal;font-weight:normal;font-stretch:normal;font-size:8.53333334px;line-height:0%;font-family:'EB Garamond';-inkscape-font-specification:'EB Garamond, Normal';font-variant-ligatures:normal;font-variant-caps:normal;font-variant-numeric:normal;font-variant-east-asian:normal;text-align:start;letter-spacing:-12.6637px;word-spacing:0px;writing-mode:lr-tb;text-anchor:start;fill:#000000;fill-opacity:1;stroke:none;stroke-width:0.532986px;stroke-linecap:butt;stroke-linejoin:miter;stroke-opacity:1"
   x="700.68298"
   y="-246.95779"
   id="text3870"
   transform="scale(1,-1)"><tspan
     sodipodi:role="line"
     id="tspan3872"
     x="700.68298"
     y="-246.95779"
     style="color:#000000;font-style:italic;font-variant:normal;font-weight:normal;font-stretch:normal;line-height:normal;font-family:'EB Garamond';-inkscape-font-specification:'EB Garamond, Normal';font-variant-ligatures:normal;font-variant-caps:normal;font-variant-numeric:normal;font-variant-east-asian:normal;text-indent:0;text-align:start;text-decoration:none;text-decoration-line:none;text-decoration-style:solid;text-decoration-color:#000000;letter-spacing:normal;word-spacing:normal;text-transform:none;writing-mode:lr-tb;direction:ltr;baseline-shift:baseline;text-anchor:start;white-space:normal;clip-rule:nonzero;display:inline;overflow:visible;visibility:visible;opacity:1;isolation:auto;mix-blend-mode:normal;color-interpolation:sRGB;color-interpolation-filters:linearRGB;solid-color:#000000;solid-opacity:1;fill:#000000;fill-opacity:1;fill-rule:nonzero;stroke:none;stroke-width:0.426389;stroke-linecap:butt;stroke-linejoin:miter;stroke-miterlimit:4;stroke-dasharray:none;stroke-dashoffset:0;stroke-opacity:1;color-rendering:auto;image-rendering:auto;shape-rendering:auto;text-rendering:auto;enable-background:accumulate;font-size:8.53333334px">A</tspan></text>
<text
   transform="scale(1,-1)"
   id="text3874"
   y="-246.95779"
   x="501.13309"
   style="font-style:normal;font-variant:normal;font-weight:normal;font-stretch:normal;font-size:8.53333334px;line-height:0%;font-family:'EB Garamond';-inkscape-font-specification:'EB Garamond, Normal';font-variant-ligatures:normal;font-variant-caps:normal;font-variant-numeric:normal;font-variant-east-asian:normal;text-align:start;letter-spacing:-12.6637px;word-spacing:0px;writing-mode:lr-tb;text-anchor:start;fill:#000000;fill-opacity:1;stroke:none;stroke-width:0.532986px;stroke-linecap:butt;stroke-linejoin:miter;stroke-opacity:1"
   xml:space="preserve"><tspan
     style="color:#000000;font-style:italic;font-variant:normal;font-weight:normal;font-stretch:normal;line-height:normal;font-family:'EB Garamond';-inkscape-font-specification:'EB Garamond, Normal';font-variant-ligatures:normal;font-variant-caps:normal;font-variant-numeric:normal;font-variant-east-asian:normal;text-indent:0;text-align:start;text-decoration:none;text-decoration-line:none;text-decoration-style:solid;text-decoration-color:#000000;letter-spacing:normal;word-spacing:normal;text-transform:none;writing-mode:lr-tb;direction:ltr;baseline-shift:baseline;text-anchor:start;white-space:normal;clip-rule:nonzero;display:inline;overflow:visible;visibility:visible;opacity:1;isolation:auto;mix-blend-mode:normal;color-interpolation:sRGB;color-interpolation-filters:linearRGB;solid-color:#000000;solid-opacity:1;fill:#000000;fill-opacity:1;fill-rule:nonzero;stroke:none;stroke-width:0.426389;stroke-linecap:butt;stroke-linejoin:miter;stroke-miterlimit:4;stroke-dasharray:none;stroke-dashoffset:0;stroke-opacity:1;color-rendering:auto;image-rendering:auto;shape-rendering:auto;text-rendering:auto;enable-background:accumulate;font-size:8.53333334px"
     y="-246.95779"
     x="501.13309"
     id="tspan3876"
     sodipodi:role="line">A</tspan></text>
<text
   transform="matrix(0,0.9999952,1.0000048,0,0,0)"
   id="text4099"
   y="478.90494"
   x="236.39882"
   style="font-style:normal;font-variant:normal;font-weight:normal;font-stretch:normal;font-size:8.53333334px;line-height:0%;font-family:'EB Garamond';-inkscape-font-specification:'EB Garamond, Normal';font-variant-ligatures:normal;font-variant-caps:normal;font-variant-numeric:normal;font-variant-east-asian:normal;text-align:start;letter-spacing:0px;word-spacing:0px;writing-mode:lr-tb;text-anchor:start;fill:#000000;fill-opacity:1;stroke:none;stroke-width:0.532986px;stroke-linecap:butt;stroke-linejoin:miter;stroke-opacity:1"
   xml:space="preserve"><tspan
     y="478.90494"
     x="236.39882"
     id="tspan4101"
     sodipodi:role="line"
     style="font-style:normal;font-variant:normal;font-weight:normal;font-stretch:normal;line-height:1.25;font-family:'EB Garamond';-inkscape-font-specification:'EB Garamond, Normal';font-variant-ligatures:normal;font-variant-caps:normal;font-variant-numeric:normal;font-variant-east-asian:normal;stroke-width:0.532986px;font-size:8.53333334px">Frequency of desired outcome in each set</tspan></text>
<path
   sodipodi:nodetypes="cccccccccccccccccccccccccc"
   inkscape:connector-curvature="0"
   id="path3704-0"
   d="m 501.92854,393.34318 3.57427,-60.10913 1.92581,-23.45455 8.63516,-10.96193 7.24391,-32.03299 7.06772,15.44634 6.54483,-28.48199 8.25276,4.35644 8.09431,9.00813 6.94736,-15.25141 9.20628,4.01081 5.67526,-19.40954 7.60076,7.57758 7.98276,5.18071 6.98694,-5.33748 7.66988,1.21969 7.18047,-6.63952 7.74015,14.75472 7.9352,-12.31885 7.30217,4.98067 8.48609,-6.10315 7.29994,5.45926 8.22253,-4.66468 7.0543,7.91894 7.23115,-7.93284 7.91135,4.49572"
   style="fill:none;fill-rule:evenodd;stroke:#ff2a2a;stroke-width:0.811401;stroke-linecap:butt;stroke-linejoin:miter;stroke-miterlimit:4;stroke-dasharray:none;stroke-opacity:1" /><ellipse
   ry="3.0916348"
   rx="3.0916049"
   transform="matrix(0.99994517,-0.0104719,-0.0104717,-0.99994517,0,0)"
   style="color:#000000;font-variation-settings:normal;clip-rule:nonzero;display:inline;overflow:visible;visibility:visible;opacity:1;isolation:auto;mix-blend-mode:normal;color-interpolation:sRGB;color-interpolation-filters:linearRGB;solid-color:#000000;solid-opacity:1;vector-effect:none;fill:#ff6600;fill-opacity:1;fill-rule:nonzero;stroke:#333333;stroke-width:0.638943;stroke-linecap:butt;stroke-linejoin:miter;stroke-miterlimit:4;stroke-dasharray:none;stroke-dashoffset:0;stroke-opacity:1;-inkscape-stroke:none;color-rendering:auto;image-rendering:auto;shape-rendering:auto;text-rendering:auto;enable-background:accumulate;stop-color:#000000;stop-opacity:1"
   id="circle4510-8"
   cx="504.34918"
   cy="-314.88858" /><ellipse
   ry="3.0916348"
   rx="3.0916049"
   transform="matrix(0.99994517,-0.0104719,-0.0104717,-0.99994517,0,0)"
   cy="-304.17093"
   cx="513.00568"
   id="circle4512-4"
   style="color:#000000;font-variation-settings:normal;clip-rule:nonzero;display:inline;overflow:visible;visibility:visible;opacity:1;isolation:auto;mix-blend-mode:normal;color-interpolation:sRGB;color-interpolation-filters:linearRGB;solid-color:#000000;solid-opacity:1;vector-effect:none;fill:#ff6600;fill-opacity:1;fill-rule:nonzero;stroke:#333333;stroke-width:0.638943;stroke-linecap:butt;stroke-linejoin:miter;stroke-miterlimit:4;stroke-dasharray:none;stroke-dashoffset:0;stroke-opacity:1;-inkscape-stroke:none;color-rendering:auto;image-rendering:auto;shape-rendering:auto;text-rendering:auto;enable-background:accumulate;stop-color:#000000;stop-opacity:1" /><ellipse
   ry="3.0916348"
   rx="3.0916049"
   transform="matrix(0.99994517,-0.0104719,-0.0104717,-0.99994517,0,0)"
   style="color:#000000;font-variation-settings:normal;clip-rule:nonzero;display:inline;overflow:visible;visibility:visible;opacity:1;isolation:auto;mix-blend-mode:normal;color-interpolation:sRGB;color-interpolation-filters:linearRGB;solid-color:#000000;solid-opacity:1;vector-effect:none;fill:#ff6600;fill-opacity:1;fill-rule:nonzero;stroke:#333333;stroke-width:0.638943;stroke-linecap:butt;stroke-linejoin:miter;stroke-miterlimit:4;stroke-dasharray:none;stroke-dashoffset:0;stroke-opacity:1;-inkscape-stroke:none;color-rendering:auto;image-rendering:auto;shape-rendering:auto;text-rendering:auto;enable-background:accumulate;stop-color:#000000;stop-opacity:1"
   id="circle4514-3"
   cx="520.12061"
   cy="-272.46417" /><ellipse
   ry="3.0916348"
   rx="3.0916049"
   transform="matrix(0.99994517,-0.0104719,-0.0104717,-0.99994517,0,0)"
   cy="-287.74927"
   cx="527.16846"
   id="circle4516-2"
   style="color:#000000;font-variation-settings:normal;clip-rule:nonzero;display:inline;overflow:visible;visibility:visible;opacity:1;isolation:auto;mix-blend-mode:normal;color-interpolation:sRGB;color-interpolation-filters:linearRGB;solid-color:#000000;solid-opacity:1;vector-effect:none;fill:#ff6600;fill-opacity:1;fill-rule:nonzero;stroke:#333333;stroke-width:0.638943;stroke-linecap:butt;stroke-linejoin:miter;stroke-miterlimit:4;stroke-dasharray:none;stroke-dashoffset:0;stroke-opacity:1;-inkscape-stroke:none;color-rendering:auto;image-rendering:auto;shape-rendering:auto;text-rendering:auto;enable-background:accumulate;stop-color:#000000;stop-opacity:1" /><ellipse
   ry="3.0916348"
   rx="3.0916049"
   transform="matrix(0.99994517,-0.0104719,-0.0104717,-0.99994517,0,0)"
   style="color:#000000;font-variation-settings:normal;clip-rule:nonzero;display:inline;overflow:visible;visibility:visible;opacity:1;isolation:auto;mix-blend-mode:normal;color-interpolation:sRGB;color-interpolation-filters:linearRGB;solid-color:#000000;solid-opacity:1;vector-effect:none;fill:#ff6600;fill-opacity:1;fill-rule:nonzero;stroke:#333333;stroke-width:0.638943;stroke-linecap:butt;stroke-linejoin:miter;stroke-miterlimit:4;stroke-dasharray:none;stroke-dashoffset:0;stroke-opacity:1;-inkscape-stroke:none;color-rendering:auto;image-rendering:auto;shape-rendering:auto;text-rendering:auto;enable-background:accumulate;stop-color:#000000;stop-opacity:1"
   id="circle4575-3"
   cx="534.25653"
   cy="-259.46716" /><ellipse
   ry="3.0916348"
   rx="3.0916049"
   transform="matrix(0.99994517,-0.0104719,-0.0104717,-0.99994517,0,0)"
   cy="-264.09549"
   cx="542.59479"
   id="circle4577-6"
   style="color:#000000;font-variation-settings:normal;clip-rule:nonzero;display:inline;overflow:visible;visibility:visible;opacity:1;isolation:auto;mix-blend-mode:normal;color-interpolation:sRGB;color-interpolation-filters:linearRGB;solid-color:#000000;solid-opacity:1;vector-effect:none;fill:#ff6600;fill-opacity:1;fill-rule:nonzero;stroke:#333333;stroke-width:0.638943;stroke-linecap:butt;stroke-linejoin:miter;stroke-miterlimit:4;stroke-dasharray:none;stroke-dashoffset:0;stroke-opacity:1;-inkscape-stroke:none;color-rendering:auto;image-rendering:auto;shape-rendering:auto;text-rendering:auto;enable-background:accumulate;stop-color:#000000;stop-opacity:1" /><ellipse
   ry="3.0916348"
   rx="3.0916049"
   transform="matrix(0.99994517,-0.0104719,-0.0104717,-0.99994517,0,0)"
   style="color:#000000;font-variation-settings:normal;clip-rule:nonzero;display:inline;overflow:visible;visibility:visible;opacity:1;isolation:auto;mix-blend-mode:normal;color-interpolation:sRGB;color-interpolation-filters:linearRGB;solid-color:#000000;solid-opacity:1;vector-effect:none;fill:#ff6600;fill-opacity:1;fill-rule:nonzero;stroke:#333333;stroke-width:0.638943;stroke-linecap:butt;stroke-linejoin:miter;stroke-miterlimit:4;stroke-dasharray:none;stroke-dashoffset:0;stroke-opacity:1;-inkscape-stroke:none;color-rendering:auto;image-rendering:auto;shape-rendering:auto;text-rendering:auto;enable-background:accumulate;stop-color:#000000;stop-opacity:1"
   id="circle4579-0"
   cx="550.34277"
   cy="-272.40332" /><ellipse
   ry="3.0916348"
   rx="3.0916049"
   transform="matrix(0.99994517,-0.0104719,-0.0104717,-0.99994517,0,0)"
   cy="-258.10983"
   cx="557.63208"
   id="circle4581-9"
   style="color:#000000;font-variation-settings:normal;clip-rule:nonzero;display:inline;overflow:visible;visibility:visible;opacity:1;isolation:auto;mix-blend-mode:normal;color-interpolation:sRGB;color-interpolation-filters:linearRGB;solid-color:#000000;solid-opacity:1;vector-effect:none;fill:#ff6600;fill-opacity:1;fill-rule:nonzero;stroke:#333333;stroke-width:0.638943;stroke-linecap:butt;stroke-linejoin:miter;stroke-miterlimit:4;stroke-dasharray:none;stroke-dashoffset:0;stroke-opacity:1;-inkscape-stroke:none;color-rendering:auto;image-rendering:auto;shape-rendering:auto;text-rendering:auto;enable-background:accumulate;stop-color:#000000;stop-opacity:1" /><ellipse
   ry="3.0916348"
   rx="3.0916049"
   transform="matrix(0.99994517,-0.0104719,-0.0104717,-0.99994517,0,0)"
   style="color:#000000;font-variation-settings:normal;clip-rule:nonzero;display:inline;overflow:visible;visibility:visible;opacity:1;isolation:auto;mix-blend-mode:normal;color-interpolation:sRGB;color-interpolation-filters:linearRGB;solid-color:#000000;solid-opacity:1;vector-effect:none;fill:#ff6600;fill-opacity:1;fill-rule:nonzero;stroke:#333333;stroke-width:0.638943;stroke-linecap:butt;stroke-linejoin:miter;stroke-miterlimit:4;stroke-dasharray:none;stroke-dashoffset:0;stroke-opacity:1;-inkscape-stroke:none;color-rendering:auto;image-rendering:auto;shape-rendering:auto;text-rendering:auto;enable-background:accumulate;stop-color:#000000;stop-opacity:1"
   id="circle4583-9"
   cx="566.68378"
   cy="-261.39056" /><ellipse
   ry="3.0916348"
   rx="3.0916049"
   transform="matrix(0.99994517,-0.0104719,-0.0104717,-0.99994517,0,0)"
   cy="-242.4187"
   cx="573.01807"
   id="circle4585-2"
   style="color:#000000;font-variation-settings:normal;clip-rule:nonzero;display:inline;overflow:visible;visibility:visible;opacity:1;isolation:auto;mix-blend-mode:normal;color-interpolation:sRGB;color-interpolation-filters:linearRGB;solid-color:#000000;solid-opacity:1;vector-effect:none;fill:#ff6600;fill-opacity:1;fill-rule:nonzero;stroke:#333333;stroke-width:0.638943;stroke-linecap:butt;stroke-linejoin:miter;stroke-miterlimit:4;stroke-dasharray:none;stroke-dashoffset:0;stroke-opacity:1;-inkscape-stroke:none;color-rendering:auto;image-rendering:auto;shape-rendering:auto;text-rendering:auto;enable-background:accumulate;stop-color:#000000;stop-opacity:1" /><ellipse
   ry="3.0916348"
   rx="3.0916049"
   transform="matrix(0.99994517,-0.0104719,-0.0104717,-0.99994517,0,0)"
   style="color:#000000;font-variation-settings:normal;clip-rule:nonzero;display:inline;overflow:visible;visibility:visible;opacity:1;isolation:auto;mix-blend-mode:normal;color-interpolation:sRGB;color-interpolation-filters:linearRGB;solid-color:#000000;solid-opacity:1;vector-effect:none;fill:#ff6600;fill-opacity:1;fill-rule:nonzero;stroke:#333333;stroke-width:0.638943;stroke-linecap:butt;stroke-linejoin:miter;stroke-miterlimit:4;stroke-dasharray:none;stroke-dashoffset:0;stroke-opacity:1;-inkscape-stroke:none;color-rendering:auto;image-rendering:auto;shape-rendering:auto;text-rendering:auto;enable-background:accumulate;stop-color:#000000;stop-opacity:1"
   id="circle4587-6"
   cx="580.6087"
   cy="-250.24113" /><ellipse
   ry="3.0916348"
   rx="3.0916049"
   transform="matrix(0.99994517,-0.0104719,-0.0104717,-0.99994517,0,0)"
   cy="-255.036"
   cx="588.06653"
   id="circle4589-6"
   style="color:#000000;font-variation-settings:normal;clip-rule:nonzero;display:inline;overflow:visible;visibility:visible;opacity:1;isolation:auto;mix-blend-mode:normal;color-interpolation:sRGB;color-interpolation-filters:linearRGB;solid-color:#000000;solid-opacity:1;vector-effect:none;fill:#ff6600;fill-opacity:1;fill-rule:nonzero;stroke:#333333;stroke-width:0.638943;stroke-linecap:butt;stroke-linejoin:miter;stroke-miterlimit:4;stroke-dasharray:none;stroke-dashoffset:0;stroke-opacity:1;-inkscape-stroke:none;color-rendering:auto;image-rendering:auto;shape-rendering:auto;text-rendering:auto;enable-background:accumulate;stop-color:#000000;stop-opacity:1" /><ellipse
   ry="3.0916348"
   rx="3.0916049"
   transform="matrix(0.99994517,-0.0104719,-0.0104717,-0.99994517,0,0)"
   style="color:#000000;font-variation-settings:normal;clip-rule:nonzero;display:inline;overflow:visible;visibility:visible;opacity:1;isolation:auto;mix-blend-mode:normal;color-interpolation:sRGB;color-interpolation-filters:linearRGB;solid-color:#000000;solid-opacity:1;vector-effect:none;fill:#ff6600;fill-opacity:1;fill-rule:nonzero;stroke:#333333;stroke-width:0.638943;stroke-linecap:butt;stroke-linejoin:miter;stroke-miterlimit:4;stroke-dasharray:none;stroke-dashoffset:0;stroke-opacity:1;-inkscape-stroke:none;color-rendering:auto;image-rendering:auto;shape-rendering:auto;text-rendering:auto;enable-background:accumulate;stop-color:#000000;stop-opacity:1"
   id="circle4591-7"
   cx="594.64679"
   cy="-249.88715" /><ellipse
   ry="3.0916348"
   rx="3.0916049"
   transform="matrix(0.99994517,-0.0104719,-0.0104717,-0.99994517,0,0)"
   cy="-251.27803"
   cx="603.08582"
   id="circle4593-6"
   style="color:#000000;font-variation-settings:normal;clip-rule:nonzero;display:inline;overflow:visible;visibility:visible;opacity:1;isolation:auto;mix-blend-mode:normal;color-interpolation:sRGB;color-interpolation-filters:linearRGB;solid-color:#000000;solid-opacity:1;vector-effect:none;fill:#ff6600;fill-opacity:1;fill-rule:nonzero;stroke:#333333;stroke-width:0.638943;stroke-linecap:butt;stroke-linejoin:miter;stroke-miterlimit:4;stroke-dasharray:none;stroke-dashoffset:0;stroke-opacity:1;-inkscape-stroke:none;color-rendering:auto;image-rendering:auto;shape-rendering:auto;text-rendering:auto;enable-background:accumulate;stop-color:#000000;stop-opacity:1" /><ellipse
   ry="3.0916348"
   rx="3.0916049"
   transform="matrix(0.99994517,-0.0104719,-0.0104717,-0.99994517,0,0)"
   style="color:#000000;font-variation-settings:normal;clip-rule:nonzero;display:inline;overflow:visible;visibility:visible;opacity:1;isolation:auto;mix-blend-mode:normal;color-interpolation:sRGB;color-interpolation-filters:linearRGB;solid-color:#000000;solid-opacity:1;vector-effect:none;fill:#ff6600;fill-opacity:1;fill-rule:nonzero;stroke:#333333;stroke-width:0.638943;stroke-linecap:butt;stroke-linejoin:miter;stroke-miterlimit:4;stroke-dasharray:none;stroke-dashoffset:0;stroke-opacity:1;-inkscape-stroke:none;color-rendering:auto;image-rendering:auto;shape-rendering:auto;text-rendering:auto;enable-background:accumulate;stop-color:#000000;stop-opacity:1"
   id="circle4595-4"
   cx="610.45001"
   cy="-245.84084" /><ellipse
   ry="3.0916348"
   rx="3.0916049"
   transform="matrix(0.99994517,-0.0104719,-0.0104717,-0.99994517,0,0)"
   cy="-259.1962"
   cx="617.85974"
   id="circle4597-3"
   style="color:#000000;font-variation-settings:normal;clip-rule:nonzero;display:inline;overflow:visible;visibility:visible;opacity:1;isolation:auto;mix-blend-mode:normal;color-interpolation:sRGB;color-interpolation-filters:linearRGB;solid-color:#000000;solid-opacity:1;vector-effect:none;fill:#ff6600;fill-opacity:1;fill-rule:nonzero;stroke:#333333;stroke-width:0.638943;stroke-linecap:butt;stroke-linejoin:miter;stroke-miterlimit:4;stroke-dasharray:none;stroke-dashoffset:0;stroke-opacity:1;-inkscape-stroke:none;color-rendering:auto;image-rendering:auto;shape-rendering:auto;text-rendering:auto;enable-background:accumulate;stop-color:#000000;stop-opacity:1" /><ellipse
   ry="3.0916348"
   rx="3.0916049"
   transform="matrix(0.99994517,-0.0104719,-0.0104717,-0.99994517,0,0)"
   style="color:#000000;font-variation-settings:normal;clip-rule:nonzero;display:inline;overflow:visible;visibility:visible;opacity:1;isolation:auto;mix-blend-mode:normal;color-interpolation:sRGB;color-interpolation-filters:linearRGB;solid-color:#000000;solid-opacity:1;vector-effect:none;fill:#ff6600;fill-opacity:1;fill-rule:nonzero;stroke:#333333;stroke-width:0.638943;stroke-linecap:butt;stroke-linejoin:miter;stroke-miterlimit:4;stroke-dasharray:none;stroke-dashoffset:0;stroke-opacity:1;-inkscape-stroke:none;color-rendering:auto;image-rendering:auto;shape-rendering:auto;text-rendering:auto;enable-background:accumulate;stop-color:#000000;stop-opacity:1"
   id="circle4599-1"
   cx="625.60364"
   cy="-247.72389" /><ellipse
   ry="3.0916348"
   rx="3.0916049"
   transform="matrix(0.99994517,-0.0104719,-0.0104717,-0.99994517,0,0)"
   cy="-251.89"
   cx="632.95996"
   id="circle4601-0"
   style="color:#000000;font-variation-settings:normal;clip-rule:nonzero;display:inline;overflow:visible;visibility:visible;opacity:1;isolation:auto;mix-blend-mode:normal;color-interpolation:sRGB;color-interpolation-filters:linearRGB;solid-color:#000000;solid-opacity:1;vector-effect:none;fill:#ff6600;fill-opacity:1;fill-rule:nonzero;stroke:#333333;stroke-width:0.638943;stroke-linecap:butt;stroke-linejoin:miter;stroke-miterlimit:4;stroke-dasharray:none;stroke-dashoffset:0;stroke-opacity:1;-inkscape-stroke:none;color-rendering:auto;image-rendering:auto;shape-rendering:auto;text-rendering:auto;enable-background:accumulate;stop-color:#000000;stop-opacity:1" /><ellipse
   ry="3.0916348"
   rx="3.0916049"
   transform="matrix(0.99994517,-0.0104719,-0.0104717,-0.99994517,0,0)"
   style="color:#000000;font-variation-settings:normal;clip-rule:nonzero;display:inline;overflow:visible;visibility:visible;opacity:1;isolation:auto;mix-blend-mode:normal;color-interpolation:sRGB;color-interpolation-filters:linearRGB;solid-color:#000000;solid-opacity:1;vector-effect:none;fill:#ff6600;fill-opacity:1;fill-rule:nonzero;stroke:#333333;stroke-width:0.638943;stroke-linecap:butt;stroke-linejoin:miter;stroke-miterlimit:4;stroke-dasharray:none;stroke-dashoffset:0;stroke-opacity:1;-inkscape-stroke:none;color-rendering:auto;image-rendering:auto;shape-rendering:auto;text-rendering:auto;enable-background:accumulate;stop-color:#000000;stop-opacity:1"
   id="circle4603-8"
   cx="641.20422"
   cy="-246.87265" /><ellipse
   ry="3.0916348"
   rx="3.0916049"
   transform="matrix(0.99994517,-0.0104719,-0.0104717,-0.99994517,0,0)"
   cy="-252.08752"
   cx="649.14362"
   id="circle4605-3"
   style="color:#000000;font-variation-settings:normal;clip-rule:nonzero;display:inline;overflow:visible;visibility:visible;opacity:1;isolation:auto;mix-blend-mode:normal;color-interpolation:sRGB;color-interpolation-filters:linearRGB;solid-color:#000000;solid-opacity:1;vector-effect:none;fill:#ff6600;fill-opacity:1;fill-rule:nonzero;stroke:#333333;stroke-width:0.638943;stroke-linecap:butt;stroke-linejoin:miter;stroke-miterlimit:4;stroke-dasharray:none;stroke-dashoffset:0;stroke-opacity:1;-inkscape-stroke:none;color-rendering:auto;image-rendering:auto;shape-rendering:auto;text-rendering:auto;enable-background:accumulate;stop-color:#000000;stop-opacity:1" /><ellipse
   ry="3.0916348"
   rx="3.0916049"
   transform="matrix(0.99994517,-0.0104719,-0.0104717,-0.99994517,0,0)"
   style="color:#000000;font-variation-settings:normal;clip-rule:nonzero;display:inline;overflow:visible;visibility:visible;opacity:1;isolation:auto;mix-blend-mode:normal;color-interpolation:sRGB;color-interpolation-filters:linearRGB;solid-color:#000000;solid-opacity:1;vector-effect:none;fill:#ff6600;fill-opacity:1;fill-rule:nonzero;stroke:#333333;stroke-width:0.638943;stroke-linecap:butt;stroke-linejoin:miter;stroke-miterlimit:4;stroke-dasharray:none;stroke-dashoffset:0;stroke-opacity:1;-inkscape-stroke:none;color-rendering:auto;image-rendering:auto;shape-rendering:auto;text-rendering:auto;enable-background:accumulate;stop-color:#000000;stop-opacity:1"
   id="circle4607-0"
   cx="656.86835"
   cy="-247.69705" /><ellipse
   ry="3.0916348"
   rx="3.0916049"
   transform="matrix(0.99994517,-0.0104719,-0.0104717,-0.99994517,0,0)"
   cy="-255.11699"
   cx="663.87598"
   id="circle4609-0"
   style="color:#000000;font-variation-settings:normal;clip-rule:nonzero;display:inline;overflow:visible;visibility:visible;opacity:1;isolation:auto;mix-blend-mode:normal;color-interpolation:sRGB;color-interpolation-filters:linearRGB;solid-color:#000000;solid-opacity:1;vector-effect:none;fill:#ff6600;fill-opacity:1;fill-rule:nonzero;stroke:#333333;stroke-width:0.638943;stroke-linecap:butt;stroke-linejoin:miter;stroke-miterlimit:4;stroke-dasharray:none;stroke-dashoffset:0;stroke-opacity:1;-inkscape-stroke:none;color-rendering:auto;image-rendering:auto;shape-rendering:auto;text-rendering:auto;enable-background:accumulate;stop-color:#000000;stop-opacity:1" /><ellipse
   ry="3.0916348"
   rx="3.0916049"
   transform="matrix(0.99994517,-0.0104719,-0.0104717,-0.99994517,0,0)"
   style="color:#000000;font-variation-settings:normal;clip-rule:nonzero;display:inline;overflow:visible;visibility:visible;opacity:1;isolation:auto;mix-blend-mode:normal;color-interpolation:sRGB;color-interpolation-filters:linearRGB;solid-color:#000000;solid-opacity:1;vector-effect:none;fill:#ff6600;fill-opacity:1;fill-rule:nonzero;stroke:#333333;stroke-width:0.638943;stroke-linecap:butt;stroke-linejoin:miter;stroke-miterlimit:4;stroke-dasharray:none;stroke-dashoffset:0;stroke-opacity:1;-inkscape-stroke:none;color-rendering:auto;image-rendering:auto;shape-rendering:auto;text-rendering:auto;enable-background:accumulate;stop-color:#000000;stop-opacity:1"
   id="circle4611-5"
   cx="671.40967"
   cy="-247.28485" /><ellipse
   ry="3.0916348"
   rx="3.0916049"
   transform="matrix(0.99994517,-0.0104719,-0.0104717,-0.99994517,0,0)"
   cy="-252.21806"
   cx="679.08765"
   id="circle4613-2"
   style="color:#000000;font-variation-settings:normal;clip-rule:nonzero;display:inline;overflow:visible;visibility:visible;opacity:1;isolation:auto;mix-blend-mode:normal;color-interpolation:sRGB;color-interpolation-filters:linearRGB;solid-color:#000000;solid-opacity:1;vector-effect:none;fill:#ff6600;fill-opacity:1;fill-rule:nonzero;stroke:#333333;stroke-width:0.638943;stroke-linecap:butt;stroke-linejoin:miter;stroke-miterlimit:4;stroke-dasharray:none;stroke-dashoffset:0;stroke-opacity:1;-inkscape-stroke:none;color-rendering:auto;image-rendering:auto;shape-rendering:auto;text-rendering:auto;enable-background:accumulate;stop-color:#000000;stop-opacity:1" /><ellipse
   ry="3.0916348"
   rx="3.0916049"
   transform="matrix(0.99994517,-0.0104719,-0.0104717,-0.99994517,0,0)"
   cy="-398.57776"
   cx="497.78204"
   id="path4508-8"
   style="color:#000000;clip-rule:nonzero;display:inline;overflow:visible;visibility:visible;isolation:auto;mix-blend-mode:normal;color-interpolation:sRGB;color-interpolation-filters:linearRGB;solid-color:#000000;solid-opacity:1;fill:#ff6600;fill-opacity:1;fill-rule:nonzero;stroke:#333333;stroke-width:0.638943;stroke-linecap:butt;stroke-linejoin:miter;stroke-miterlimit:4;stroke-dasharray:none;stroke-dashoffset:0;stroke-opacity:1;color-rendering:auto;image-rendering:auto;shape-rendering:auto;text-rendering:auto;enable-background:accumulate" /><text
   transform="scale(0.9999952,-1.0000048)"
   id="text540"
   y="-182.30388"
   x="574.8075"
   style="font-style:normal;font-variant:normal;font-weight:normal;font-stretch:normal;font-size:8.53333334px;line-height:0%;font-family:'EB Garamond';-inkscape-font-specification:'EB Garamond, Normal';font-variant-ligatures:normal;font-variant-caps:normal;font-variant-numeric:normal;font-variant-east-asian:normal;text-align:start;letter-spacing:0px;word-spacing:0px;writing-mode:lr-tb;text-anchor:start;fill:#000000;fill-opacity:1;stroke:none;stroke-width:0.532986px;stroke-linecap:butt;stroke-linejoin:miter;stroke-opacity:1"
   xml:space="preserve"><tspan
     y="-182.30388"
     x="574.8075"
     id="tspan538"
     sodipodi:role="line"
     style="font-style:normal;font-variant:normal;font-weight:normal;font-stretch:normal;line-height:1.25;font-family:'EB Garamond';-inkscape-font-specification:'EB Garamond, Normal';font-variant-ligatures:normal;font-variant-caps:normal;font-variant-numeric:normal;font-variant-east-asian:normal;stroke-width:0.532986px;font-size:8.53333334px">Number of trials</tspan></text><g
   id="g2841"
   transform="matrix(0.53298573,0,0,0.53298573,239.80628,191.0296)"><path
     style="color:#000000;clip-rule:nonzero;display:inline;overflow:visible;visibility:visible;isolation:auto;mix-blend-mode:normal;color-interpolation:sRGB;color-interpolation-filters:linearRGB;solid-color:#000000;solid-opacity:1;fill:#ffffff;fill-opacity:1;fill-rule:nonzero;stroke:#ff0000;stroke-width:0;stroke-linecap:round;stroke-linejoin:round;stroke-miterlimit:4;stroke-dasharray:none;stroke-dashoffset:0;stroke-opacity:1;color-rendering:auto;image-rendering:auto;shape-rendering:auto;text-rendering:auto;enable-background:accumulate"
     d="m 525.94196,54.213223 -1.31295,-1.602487 -0.30286,-0.07905 c -1.02128,0 -3.66893,0.847607 -4.53891,0.847607 -0.66544,-0.360439 -1.23798,-1.000751 -1.72039,-1.600702 v -3.621547 l 1.43671,1.753779 0.30242,0.07903 c 1.02128,0 3.66937,-0.847584 4.53935,-0.847584 0.68481,0.309748 1.24144,0.967931 1.59663,1.621161 z"
     id="path2835"
     inkscape:connector-curvature="0"
     sodipodi:nodetypes="ccccccccccc" /><g
     style="font-style:normal;font-variant:normal;font-weight:normal;font-stretch:normal;font-size:84.7674px;line-height:125%;font-family:Alegreya;-inkscape-font-specification:Alegreya;text-align:start;letter-spacing:0px;word-spacing:0px;writing-mode:lr-tb;text-anchor:start;fill:#333333;fill-opacity:1;stroke:none;stroke-width:1px;stroke-linecap:butt;stroke-linejoin:miter;stroke-opacity:1"
     id="g2839"
     transform="matrix(0.22311078,0,0,-0.22311294,416.40717,321.86312)"><path
       inkscape:connector-curvature="0"
       id="path2837"
       d="m 458.02014,1228.084 c 0,0 3.30593,-4.6622 5.34035,-4.6622 3.8993,0 15.76674,3.645 20.34418,3.645 l 1.35628,-0.3391 6.44232,-7.5443 v -0.4238 l -1.86488,-1.7801 h -0.50861 c 0,0 -3.30593,4.6622 -5.34035,4.6622 -3.8993,0 -15.76674,-3.645 -20.34418,-3.645 l -1.35628,0.3391 -6.44232,7.5443 v 0.4238 l 1.86488,1.7801 z m 0,-20 c 0,0 3.30593,-4.6622 5.34035,-4.6622 3.8993,0 15.76674,3.645 20.34418,3.645 l 1.35628,-0.3391 6.44232,-7.5443 v -0.4238 l -1.86488,-1.7801 h -0.50861 c 0,0 -3.30593,4.6622 -5.34035,4.6622 -3.8993,0 -15.76674,-3.645 -20.34418,-3.645 l -1.35628,0.3391 -6.44232,7.5443 v 0.4238 l 1.86488,1.7801 z"
       style="fill:#333333;fill-opacity:1" /></g></g></g></svg>
